NOTICE: 16-08-23 17:12:10 [-:-] errno[-] logId[-] uri[-] user[-] refer[-] cookie[-] custom[-]  [yog-ral] [cluster main][RalModule] [/Users/apple/Desktop/workspace/ndesig/yog/node_modules/yog2-kernel/node_modules/node-ral/lib/ext] is skiped since not RalModule
NOTICE: 16-08-23 17:12:10 [-:-] errno[-] logId[-] uri[-] user[-] refer[-] cookie[-] custom[-]  [yog-ral] [cluster main][Config] config auto update wase disabled
NOTICE: 16-08-23 17:12:11 [-:-] errno[-] logId[-] uri[-] user[-] refer[-] cookie[-] custom[-]  [yog-ral] [cluster main][RalModule] [/Users/apple/Desktop/workspace/ndesig/yog/node_modules/yog2-kernel/node_modules/node-ral/lib/ext] is skiped since not RalModule
NOTICE: 16-08-23 17:12:11 [-:-] errno[-] logId[-] uri[-] user[-] refer[-] cookie[-] custom[-]  [yog-ral] [cluster main][Config] config auto update wase disabled
NOTICE: 16-08-23 17:12:12 [-:-] errno[-] logId[-] uri[-] user[-] refer[-] cookie[-] custom[-]  [yog-ral] [cluster main][RalModule] [/Users/apple/Desktop/workspace/ndesig/yog/node_modules/yog2-kernel/node_modules/node-ral/lib/ext] is skiped since not RalModule
NOTICE: 16-08-23 17:12:12 [-:-] errno[-] logId[-] uri[-] user[-] refer[-] cookie[-] custom[-]  [yog-ral] [cluster main][Config] config auto update wase disabled
NOTICE: 16-08-23 17:12:14 [-:-] errno[-] logId[-] uri[-] user[-] refer[-] cookie[-] custom[-]  [yog-ral] [cluster main][RalModule] [/Users/apple/Desktop/workspace/ndesig/yog/node_modules/yog2-kernel/node_modules/node-ral/lib/ext] is skiped since not RalModule
NOTICE: 16-08-23 17:12:14 [-:-] errno[-] logId[-] uri[-] user[-] refer[-] cookie[-] custom[-]  [yog-ral] [cluster main][Config] config auto update wase disabled
NOTICE: 16-08-23 17:12:15 [-:-] errno[-] logId[-] uri[-] user[-] refer[-] cookie[-] custom[-]  [yog-ral] [cluster main][RalModule] [/Users/apple/Desktop/workspace/ndesig/yog/node_modules/yog2-kernel/node_modules/node-ral/lib/ext] is skiped since not RalModule
NOTICE: 16-08-23 17:12:15 [-:-] errno[-] logId[-] uri[-] user[-] refer[-] cookie[-] custom[-]  [yog-ral] [cluster main][Config] config auto update wase disabled
NOTICE: 16-08-23 17:12:34 [-:-] errno[-] logId[-] uri[-] user[-] refer[-] cookie[-] custom[-]  [yog-ral] [cluster main][RalModule] [/Users/apple/Desktop/workspace/ndesig/yog/node_modules/yog2-kernel/node_modules/node-ral/lib/ext] is skiped since not RalModule
NOTICE: 16-08-23 17:12:34 [-:-] errno[-] logId[-] uri[-] user[-] refer[-] cookie[-] custom[-]  [yog-ral] [cluster main][Config] config auto update wase disabled
