NOTICE: 16-08-19 20:00:48 [-:-] errno[-] logId[-] uri[-] user[-] refer[-] cookie[-] custom[-]  [yog-ral] [cluster main][RalModule] [/Users/apple/Desktop/workspace/ndesig/yog/node_modules/yog2-kernel/node_modules/node-ral/lib/ext] is skiped since not RalModule
NOTICE: 16-08-19 20:00:48 [-:-] errno[-] logId[-] uri[-] user[-] refer[-] cookie[-] custom[-]  [yog-ral] [cluster main][Config] config auto update wase disabled
NOTICE: 16-08-19 20:06:28 [-:-] errno[-] logId[-] uri[-] user[-] refer[-] cookie[-] custom[-]  [yog-ral] [cluster main][RalModule] [/Users/apple/Desktop/workspace/ndesig/yog/node_modules/yog2-kernel/node_modules/node-ral/lib/ext] is skiped since not RalModule
NOTICE: 16-08-19 20:06:28 [-:-] errno[-] logId[-] uri[-] user[-] refer[-] cookie[-] custom[-]  [yog-ral] [cluster main][Config] config auto update wase disabled
NOTICE: 16-08-19 20:07:25 [-:-] errno[-] logId[-] uri[-] user[-] refer[-] cookie[-] custom[-]  [yog-ral] [cluster main][RalModule] [/Users/apple/Desktop/workspace/ndesig/yog/node_modules/yog2-kernel/node_modules/node-ral/lib/ext] is skiped since not RalModule
NOTICE: 16-08-19 20:07:25 [-:-] errno[-] logId[-] uri[-] user[-] refer[-] cookie[-] custom[-]  [yog-ral] [cluster main][Config] config auto update wase disabled
NOTICE: 16-08-19 20:12:30 [-:-] errno[-] logId[-] uri[-] user[-] refer[-] cookie[-] custom[-]  [yog-ral] [cluster main][RalModule] [/Users/apple/Desktop/workspace/ndesig/yog/node_modules/yog2-kernel/node_modules/node-ral/lib/ext] is skiped since not RalModule
NOTICE: 16-08-19 20:12:30 [-:-] errno[-] logId[-] uri[-] user[-] refer[-] cookie[-] custom[-]  [yog-ral] [cluster main][Config] config auto update wase disabled
NOTICE: 16-08-19 20:13:52 [-:-] errno[-] logId[-] uri[-] user[-] refer[-] cookie[-] custom[-]  [yog-ral] [cluster main][RalModule] [/Users/apple/Desktop/workspace/ndesig/yog/node_modules/yog2-kernel/node_modules/node-ral/lib/ext] is skiped since not RalModule
NOTICE: 16-08-19 20:13:52 [-:-] errno[-] logId[-] uri[-] user[-] refer[-] cookie[-] custom[-]  [yog-ral] [cluster main][Config] config auto update wase disabled
NOTICE: 16-08-19 20:13:59 [-:-] errno[-] logId[-] uri[-] user[-] refer[-] cookie[-] custom[-]  [yog-ral] [cluster main][RalModule] [/Users/apple/Desktop/workspace/ndesig/yog/node_modules/yog2-kernel/node_modules/node-ral/lib/ext] is skiped since not RalModule
NOTICE: 16-08-19 20:13:59 [-:-] errno[-] logId[-] uri[-] user[-] refer[-] cookie[-] custom[-]  [yog-ral] [cluster main][Config] config auto update wase disabled
NOTICE: 16-08-19 20:14:01 [-:-] errno[-] logId[-] uri[-] user[-] refer[-] cookie[-] custom[-]  [yog-ral] [cluster main][RalModule] [/Users/apple/Desktop/workspace/ndesig/yog/node_modules/yog2-kernel/node_modules/node-ral/lib/ext] is skiped since not RalModule
NOTICE: 16-08-19 20:14:01 [-:-] errno[-] logId[-] uri[-] user[-] refer[-] cookie[-] custom[-]  [yog-ral] [cluster main][Config] config auto update wase disabled
NOTICE: 16-08-19 20:14:07 [-:-] errno[-] logId[-] uri[-] user[-] refer[-] cookie[-] custom[-]  [yog-ral] [cluster main][RalModule] [/Users/apple/Desktop/workspace/ndesig/yog/node_modules/yog2-kernel/node_modules/node-ral/lib/ext] is skiped since not RalModule
NOTICE: 16-08-19 20:14:07 [-:-] errno[-] logId[-] uri[-] user[-] refer[-] cookie[-] custom[-]  [yog-ral] [cluster main][Config] config auto update wase disabled
NOTICE: 16-08-19 20:14:36 [-:-] errno[-] logId[-] uri[-] user[-] refer[-] cookie[-] custom[-]  [yog-ral] [cluster main][RalModule] [/Users/apple/Desktop/workspace/ndesig/yog/node_modules/yog2-kernel/node_modules/node-ral/lib/ext] is skiped since not RalModule
NOTICE: 16-08-19 20:14:36 [-:-] errno[-] logId[-] uri[-] user[-] refer[-] cookie[-] custom[-]  [yog-ral] [cluster main][Config] config auto update wase disabled
NOTICE: 16-08-19 20:14:41 [-:-] errno[-] logId[-] uri[-] user[-] refer[-] cookie[-] custom[-]  [yog-ral] [cluster main][RalModule] [/Users/apple/Desktop/workspace/ndesig/yog/node_modules/yog2-kernel/node_modules/node-ral/lib/ext] is skiped since not RalModule
NOTICE: 16-08-19 20:14:41 [-:-] errno[-] logId[-] uri[-] user[-] refer[-] cookie[-] custom[-]  [yog-ral] [cluster main][Config] config auto update wase disabled
NOTICE: 16-08-19 20:14:43 [-:-] errno[-] logId[-] uri[-] user[-] refer[-] cookie[-] custom[-]  [yog-ral] [cluster main][RalModule] [/Users/apple/Desktop/workspace/ndesig/yog/node_modules/yog2-kernel/node_modules/node-ral/lib/ext] is skiped since not RalModule
NOTICE: 16-08-19 20:14:43 [-:-] errno[-] logId[-] uri[-] user[-] refer[-] cookie[-] custom[-]  [yog-ral] [cluster main][Config] config auto update wase disabled
NOTICE: 16-08-19 20:15:13 [-:-] errno[-] logId[-] uri[-] user[-] refer[-] cookie[-] custom[-]  [yog-ral] [cluster main][RalModule] [/Users/apple/Desktop/workspace/ndesig/yog/node_modules/yog2-kernel/node_modules/node-ral/lib/ext] is skiped since not RalModule
NOTICE: 16-08-19 20:15:13 [-:-] errno[-] logId[-] uri[-] user[-] refer[-] cookie[-] custom[-]  [yog-ral] [cluster main][Config] config auto update wase disabled
NOTICE: 16-08-19 20:16:07 [-:-] errno[-] logId[-] uri[-] user[-] refer[-] cookie[-] custom[-]  [yog-ral] [cluster main][RalModule] [/Users/apple/Desktop/workspace/ndesig/yog/node_modules/yog2-kernel/node_modules/node-ral/lib/ext] is skiped since not RalModule
NOTICE: 16-08-19 20:16:07 [-:-] errno[-] logId[-] uri[-] user[-] refer[-] cookie[-] custom[-]  [yog-ral] [cluster main][Config] config auto update wase disabled
NOTICE: 16-08-19 20:16:15 [-:-] errno[-] logId[-] uri[-] user[-] refer[-] cookie[-] custom[-]  [yog-ral] [cluster main][RalModule] [/Users/apple/Desktop/workspace/ndesig/yog/node_modules/yog2-kernel/node_modules/node-ral/lib/ext] is skiped since not RalModule
NOTICE: 16-08-19 20:16:15 [-:-] errno[-] logId[-] uri[-] user[-] refer[-] cookie[-] custom[-]  [yog-ral] [cluster main][Config] config auto update wase disabled
NOTICE: 16-08-19 20:17:16 [-:-] errno[-] logId[-] uri[-] user[-] refer[-] cookie[-] custom[-]  [yog-ral] [cluster main][RalModule] [/Users/apple/Desktop/workspace/ndesig/yog/node_modules/yog2-kernel/node_modules/node-ral/lib/ext] is skiped since not RalModule
NOTICE: 16-08-19 20:17:16 [-:-] errno[-] logId[-] uri[-] user[-] refer[-] cookie[-] custom[-]  [yog-ral] [cluster main][Config] config auto update wase disabled
NOTICE: 16-08-19 20:18:18 [-:-] errno[-] logId[-] uri[-] user[-] refer[-] cookie[-] custom[-]  [yog-ral] [cluster main][RalModule] [/Users/apple/Desktop/workspace/ndesig/yog/node_modules/yog2-kernel/node_modules/node-ral/lib/ext] is skiped since not RalModule
NOTICE: 16-08-19 20:18:18 [-:-] errno[-] logId[-] uri[-] user[-] refer[-] cookie[-] custom[-]  [yog-ral] [cluster main][Config] config auto update wase disabled
NOTICE: 16-08-19 20:20:23 [-:-] errno[-] logId[-] uri[-] user[-] refer[-] cookie[-] custom[-]  [yog-ral] [cluster main][RalModule] [/Users/apple/Desktop/workspace/ndesig/yog/node_modules/yog2-kernel/node_modules/node-ral/lib/ext] is skiped since not RalModule
NOTICE: 16-08-19 20:20:23 [-:-] errno[-] logId[-] uri[-] user[-] refer[-] cookie[-] custom[-]  [yog-ral] [cluster main][Config] config auto update wase disabled
NOTICE: 16-08-19 20:22:21 [-:-] errno[-] logId[-] uri[-] user[-] refer[-] cookie[-] custom[-]  [yog-ral] [cluster main][RalModule] [/Users/apple/Desktop/workspace/ndesig/yog/node_modules/yog2-kernel/node_modules/node-ral/lib/ext] is skiped since not RalModule
NOTICE: 16-08-19 20:22:21 [-:-] errno[-] logId[-] uri[-] user[-] refer[-] cookie[-] custom[-]  [yog-ral] [cluster main][Config] config auto update wase disabled
NOTICE: 16-08-19 20:22:25 [-:-] errno[-] logId[-] uri[-] user[-] refer[-] cookie[-] custom[-]  [yog-ral] [cluster main][RalModule] [/Users/apple/Desktop/workspace/ndesig/yog/node_modules/yog2-kernel/node_modules/node-ral/lib/ext] is skiped since not RalModule
NOTICE: 16-08-19 20:22:25 [-:-] errno[-] logId[-] uri[-] user[-] refer[-] cookie[-] custom[-]  [yog-ral] [cluster main][Config] config auto update wase disabled
NOTICE: 16-08-19 20:23:16 [-:-] errno[-] logId[-] uri[-] user[-] refer[-] cookie[-] custom[-]  [yog-ral] [cluster main][RalModule] [/Users/apple/Desktop/workspace/ndesig/yog/node_modules/yog2-kernel/node_modules/node-ral/lib/ext] is skiped since not RalModule
NOTICE: 16-08-19 20:23:16 [-:-] errno[-] logId[-] uri[-] user[-] refer[-] cookie[-] custom[-]  [yog-ral] [cluster main][Config] config auto update wase disabled
NOTICE: 16-08-19 20:25:40 [-:-] errno[-] logId[-] uri[-] user[-] refer[-] cookie[-] custom[-]  [yog-ral] [cluster main][RalModule] [/Users/apple/Desktop/workspace/ndesig/yog/node_modules/yog2-kernel/node_modules/node-ral/lib/ext] is skiped since not RalModule
NOTICE: 16-08-19 20:25:40 [-:-] errno[-] logId[-] uri[-] user[-] refer[-] cookie[-] custom[-]  [yog-ral] [cluster main][Config] config auto update wase disabled
NOTICE: 16-08-19 20:26:26 [-:-] errno[-] logId[-] uri[-] user[-] refer[-] cookie[-] custom[-]  [yog-ral] [cluster main][RalModule] [/Users/apple/Desktop/workspace/ndesig/yog/node_modules/yog2-kernel/node_modules/node-ral/lib/ext] is skiped since not RalModule
NOTICE: 16-08-19 20:26:27 [-:-] errno[-] logId[-] uri[-] user[-] refer[-] cookie[-] custom[-]  [yog-ral] [cluster main][Config] config auto update wase disabled
NOTICE: 16-08-19 20:26:43 [-:-] errno[-] logId[-] uri[-] user[-] refer[-] cookie[-] custom[-]  [yog-ral] [cluster main][RalModule] [/Users/apple/Desktop/workspace/ndesig/yog/node_modules/yog2-kernel/node_modules/node-ral/lib/ext] is skiped since not RalModule
NOTICE: 16-08-19 20:26:43 [-:-] errno[-] logId[-] uri[-] user[-] refer[-] cookie[-] custom[-]  [yog-ral] [cluster main][Config] config auto update wase disabled
NOTICE: 16-08-19 20:27:33 [-:-] errno[-] logId[-] uri[-] user[-] refer[-] cookie[-] custom[-]  [yog-ral] [cluster main][RalModule] [/Users/apple/Desktop/workspace/ndesig/yog/node_modules/yog2-kernel/node_modules/node-ral/lib/ext] is skiped since not RalModule
NOTICE: 16-08-19 20:27:33 [-:-] errno[-] logId[-] uri[-] user[-] refer[-] cookie[-] custom[-]  [yog-ral] [cluster main][Config] config auto update wase disabled
