NOTICE: 16-08-19 21:49:32 [-:-] errno[-] logId[-] uri[-] user[-] refer[-] cookie[-] custom[-]  [yog-ral] [cluster main][RalModule] [/Users/apple/Desktop/workspace/ndesig/yog/node_modules/yog2-kernel/node_modules/node-ral/lib/ext] is skiped since not RalModule
NOTICE: 16-08-19 21:49:32 [-:-] errno[-] logId[-] uri[-] user[-] refer[-] cookie[-] custom[-]  [yog-ral] [cluster main][Config] config auto update wase disabled
NOTICE: 16-08-19 21:50:49 [-:-] errno[-] logId[-] uri[-] user[-] refer[-] cookie[-] custom[-]  [yog-ral] [cluster main][RalModule] [/Users/apple/Desktop/workspace/ndesig/yog/node_modules/yog2-kernel/node_modules/node-ral/lib/ext] is skiped since not RalModule
NOTICE: 16-08-19 21:50:49 [-:-] errno[-] logId[-] uri[-] user[-] refer[-] cookie[-] custom[-]  [yog-ral] [cluster main][Config] config auto update wase disabled
