NOTICE: 16-08-19 19:58:22 [-:-] errno[-] logId[-] uri[-] user[-] refer[-] cookie[-] custom[-]  [yog-ral] [cluster main][RalModule] [/Users/apple/Desktop/workspace/ndesig/yog/node_modules/yog2-kernel/node_modules/node-ral/lib/ext] is skiped since not RalModule
NOTICE: 16-08-19 19:58:22 [-:-] errno[-] logId[-] uri[-] user[-] refer[-] cookie[-] custom[-]  [yog-ral] [cluster main][Config] config auto update wase disabled
NOTICE: 16-08-19 19:58:26 [-:-] errno[-] logId[-] uri[-] user[-] refer[-] cookie[-] custom[-]  [yog-ral] [cluster main][RalModule] [/Users/apple/Desktop/workspace/ndesig/yog/node_modules/yog2-kernel/node_modules/node-ral/lib/ext] is skiped since not RalModule
NOTICE: 16-08-19 19:58:26 [-:-] errno[-] logId[-] uri[-] user[-] refer[-] cookie[-] custom[-]  [yog-ral] [cluster main][Config] config auto update wase disabled
NOTICE: 16-08-19 19:58:29 [-:-] errno[-] logId[-] uri[-] user[-] refer[-] cookie[-] custom[-]  [yog-ral] [cluster main][RalModule] [/Users/apple/Desktop/workspace/ndesig/yog/node_modules/yog2-kernel/node_modules/node-ral/lib/ext] is skiped since not RalModule
NOTICE: 16-08-19 19:58:29 [-:-] errno[-] logId[-] uri[-] user[-] refer[-] cookie[-] custom[-]  [yog-ral] [cluster main][Config] config auto update wase disabled
NOTICE: 16-08-19 19:58:31 [-:-] errno[-] logId[-] uri[-] user[-] refer[-] cookie[-] custom[-]  [yog-ral] [cluster main][RalModule] [/Users/apple/Desktop/workspace/ndesig/yog/node_modules/yog2-kernel/node_modules/node-ral/lib/ext] is skiped since not RalModule
NOTICE: 16-08-19 19:58:31 [-:-] errno[-] logId[-] uri[-] user[-] refer[-] cookie[-] custom[-]  [yog-ral] [cluster main][Config] config auto update wase disabled
NOTICE: 16-08-19 19:58:33 [-:-] errno[-] logId[-] uri[-] user[-] refer[-] cookie[-] custom[-]  [yog-ral] [cluster main][RalModule] [/Users/apple/Desktop/workspace/ndesig/yog/node_modules/yog2-kernel/node_modules/node-ral/lib/ext] is skiped since not RalModule
NOTICE: 16-08-19 19:58:33 [-:-] errno[-] logId[-] uri[-] user[-] refer[-] cookie[-] custom[-]  [yog-ral] [cluster main][Config] config auto update wase disabled
NOTICE: 16-08-19 19:58:34 [-:-] errno[-] logId[-] uri[-] user[-] refer[-] cookie[-] custom[-]  [yog-ral] [cluster main][RalModule] [/Users/apple/Desktop/workspace/ndesig/yog/node_modules/yog2-kernel/node_modules/node-ral/lib/ext] is skiped since not RalModule
NOTICE: 16-08-19 19:58:34 [-:-] errno[-] logId[-] uri[-] user[-] refer[-] cookie[-] custom[-]  [yog-ral] [cluster main][Config] config auto update wase disabled
NOTICE: 16-08-19 19:58:35 [-:-] errno[-] logId[-] uri[-] user[-] refer[-] cookie[-] custom[-]  [yog-ral] [cluster main][RalModule] [/Users/apple/Desktop/workspace/ndesig/yog/node_modules/yog2-kernel/node_modules/node-ral/lib/ext] is skiped since not RalModule
NOTICE: 16-08-19 19:58:35 [-:-] errno[-] logId[-] uri[-] user[-] refer[-] cookie[-] custom[-]  [yog-ral] [cluster main][Config] config auto update wase disabled
NOTICE: 16-08-19 19:58:36 [-:-] errno[-] logId[-] uri[-] user[-] refer[-] cookie[-] custom[-]  [yog-ral] [cluster main][RalModule] [/Users/apple/Desktop/workspace/ndesig/yog/node_modules/yog2-kernel/node_modules/node-ral/lib/ext] is skiped since not RalModule
NOTICE: 16-08-19 19:58:36 [-:-] errno[-] logId[-] uri[-] user[-] refer[-] cookie[-] custom[-]  [yog-ral] [cluster main][Config] config auto update wase disabled
NOTICE: 16-08-19 19:58:38 [-:-] errno[-] logId[-] uri[-] user[-] refer[-] cookie[-] custom[-]  [yog-ral] [cluster main][RalModule] [/Users/apple/Desktop/workspace/ndesig/yog/node_modules/yog2-kernel/node_modules/node-ral/lib/ext] is skiped since not RalModule
NOTICE: 16-08-19 19:58:38 [-:-] errno[-] logId[-] uri[-] user[-] refer[-] cookie[-] custom[-]  [yog-ral] [cluster main][Config] config auto update wase disabled
NOTICE: 16-08-19 19:58:39 [-:-] errno[-] logId[-] uri[-] user[-] refer[-] cookie[-] custom[-]  [yog-ral] [cluster main][RalModule] [/Users/apple/Desktop/workspace/ndesig/yog/node_modules/yog2-kernel/node_modules/node-ral/lib/ext] is skiped since not RalModule
NOTICE: 16-08-19 19:58:39 [-:-] errno[-] logId[-] uri[-] user[-] refer[-] cookie[-] custom[-]  [yog-ral] [cluster main][Config] config auto update wase disabled
NOTICE: 16-08-19 19:58:40 [-:-] errno[-] logId[-] uri[-] user[-] refer[-] cookie[-] custom[-]  [yog-ral] [cluster main][RalModule] [/Users/apple/Desktop/workspace/ndesig/yog/node_modules/yog2-kernel/node_modules/node-ral/lib/ext] is skiped since not RalModule
NOTICE: 16-08-19 19:58:40 [-:-] errno[-] logId[-] uri[-] user[-] refer[-] cookie[-] custom[-]  [yog-ral] [cluster main][Config] config auto update wase disabled
NOTICE: 16-08-19 19:58:41 [-:-] errno[-] logId[-] uri[-] user[-] refer[-] cookie[-] custom[-]  [yog-ral] [cluster main][RalModule] [/Users/apple/Desktop/workspace/ndesig/yog/node_modules/yog2-kernel/node_modules/node-ral/lib/ext] is skiped since not RalModule
NOTICE: 16-08-19 19:58:41 [-:-] errno[-] logId[-] uri[-] user[-] refer[-] cookie[-] custom[-]  [yog-ral] [cluster main][Config] config auto update wase disabled
NOTICE: 16-08-19 19:58:43 [-:-] errno[-] logId[-] uri[-] user[-] refer[-] cookie[-] custom[-]  [yog-ral] [cluster main][RalModule] [/Users/apple/Desktop/workspace/ndesig/yog/node_modules/yog2-kernel/node_modules/node-ral/lib/ext] is skiped since not RalModule
NOTICE: 16-08-19 19:58:43 [-:-] errno[-] logId[-] uri[-] user[-] refer[-] cookie[-] custom[-]  [yog-ral] [cluster main][Config] config auto update wase disabled
NOTICE: 16-08-19 19:58:44 [-:-] errno[-] logId[-] uri[-] user[-] refer[-] cookie[-] custom[-]  [yog-ral] [cluster main][RalModule] [/Users/apple/Desktop/workspace/ndesig/yog/node_modules/yog2-kernel/node_modules/node-ral/lib/ext] is skiped since not RalModule
NOTICE: 16-08-19 19:58:44 [-:-] errno[-] logId[-] uri[-] user[-] refer[-] cookie[-] custom[-]  [yog-ral] [cluster main][Config] config auto update wase disabled
NOTICE: 16-08-19 19:58:46 [-:-] errno[-] logId[-] uri[-] user[-] refer[-] cookie[-] custom[-]  [yog-ral] [cluster main][RalModule] [/Users/apple/Desktop/workspace/ndesig/yog/node_modules/yog2-kernel/node_modules/node-ral/lib/ext] is skiped since not RalModule
NOTICE: 16-08-19 19:58:46 [-:-] errno[-] logId[-] uri[-] user[-] refer[-] cookie[-] custom[-]  [yog-ral] [cluster main][Config] config auto update wase disabled
NOTICE: 16-08-19 19:58:47 [-:-] errno[-] logId[-] uri[-] user[-] refer[-] cookie[-] custom[-]  [yog-ral] [cluster main][RalModule] [/Users/apple/Desktop/workspace/ndesig/yog/node_modules/yog2-kernel/node_modules/node-ral/lib/ext] is skiped since not RalModule
NOTICE: 16-08-19 19:58:47 [-:-] errno[-] logId[-] uri[-] user[-] refer[-] cookie[-] custom[-]  [yog-ral] [cluster main][Config] config auto update wase disabled
NOTICE: 16-08-19 19:58:48 [-:-] errno[-] logId[-] uri[-] user[-] refer[-] cookie[-] custom[-]  [yog-ral] [cluster main][RalModule] [/Users/apple/Desktop/workspace/ndesig/yog/node_modules/yog2-kernel/node_modules/node-ral/lib/ext] is skiped since not RalModule
NOTICE: 16-08-19 19:58:48 [-:-] errno[-] logId[-] uri[-] user[-] refer[-] cookie[-] custom[-]  [yog-ral] [cluster main][Config] config auto update wase disabled
NOTICE: 16-08-19 19:58:50 [-:-] errno[-] logId[-] uri[-] user[-] refer[-] cookie[-] custom[-]  [yog-ral] [cluster main][RalModule] [/Users/apple/Desktop/workspace/ndesig/yog/node_modules/yog2-kernel/node_modules/node-ral/lib/ext] is skiped since not RalModule
NOTICE: 16-08-19 19:58:50 [-:-] errno[-] logId[-] uri[-] user[-] refer[-] cookie[-] custom[-]  [yog-ral] [cluster main][Config] config auto update wase disabled
NOTICE: 16-08-19 19:58:51 [-:-] errno[-] logId[-] uri[-] user[-] refer[-] cookie[-] custom[-]  [yog-ral] [cluster main][RalModule] [/Users/apple/Desktop/workspace/ndesig/yog/node_modules/yog2-kernel/node_modules/node-ral/lib/ext] is skiped since not RalModule
NOTICE: 16-08-19 19:58:51 [-:-] errno[-] logId[-] uri[-] user[-] refer[-] cookie[-] custom[-]  [yog-ral] [cluster main][Config] config auto update wase disabled
NOTICE: 16-08-19 19:58:52 [-:-] errno[-] logId[-] uri[-] user[-] refer[-] cookie[-] custom[-]  [yog-ral] [cluster main][RalModule] [/Users/apple/Desktop/workspace/ndesig/yog/node_modules/yog2-kernel/node_modules/node-ral/lib/ext] is skiped since not RalModule
NOTICE: 16-08-19 19:58:52 [-:-] errno[-] logId[-] uri[-] user[-] refer[-] cookie[-] custom[-]  [yog-ral] [cluster main][Config] config auto update wase disabled
NOTICE: 16-08-19 19:58:54 [-:-] errno[-] logId[-] uri[-] user[-] refer[-] cookie[-] custom[-]  [yog-ral] [cluster main][RalModule] [/Users/apple/Desktop/workspace/ndesig/yog/node_modules/yog2-kernel/node_modules/node-ral/lib/ext] is skiped since not RalModule
NOTICE: 16-08-19 19:58:54 [-:-] errno[-] logId[-] uri[-] user[-] refer[-] cookie[-] custom[-]  [yog-ral] [cluster main][Config] config auto update wase disabled
NOTICE: 16-08-19 19:58:55 [-:-] errno[-] logId[-] uri[-] user[-] refer[-] cookie[-] custom[-]  [yog-ral] [cluster main][RalModule] [/Users/apple/Desktop/workspace/ndesig/yog/node_modules/yog2-kernel/node_modules/node-ral/lib/ext] is skiped since not RalModule
NOTICE: 16-08-19 19:58:55 [-:-] errno[-] logId[-] uri[-] user[-] refer[-] cookie[-] custom[-]  [yog-ral] [cluster main][Config] config auto update wase disabled
NOTICE: 16-08-19 19:58:56 [-:-] errno[-] logId[-] uri[-] user[-] refer[-] cookie[-] custom[-]  [yog-ral] [cluster main][RalModule] [/Users/apple/Desktop/workspace/ndesig/yog/node_modules/yog2-kernel/node_modules/node-ral/lib/ext] is skiped since not RalModule
NOTICE: 16-08-19 19:58:56 [-:-] errno[-] logId[-] uri[-] user[-] refer[-] cookie[-] custom[-]  [yog-ral] [cluster main][Config] config auto update wase disabled
NOTICE: 16-08-19 19:58:58 [-:-] errno[-] logId[-] uri[-] user[-] refer[-] cookie[-] custom[-]  [yog-ral] [cluster main][RalModule] [/Users/apple/Desktop/workspace/ndesig/yog/node_modules/yog2-kernel/node_modules/node-ral/lib/ext] is skiped since not RalModule
NOTICE: 16-08-19 19:58:58 [-:-] errno[-] logId[-] uri[-] user[-] refer[-] cookie[-] custom[-]  [yog-ral] [cluster main][Config] config auto update wase disabled
NOTICE: 16-08-19 19:58:59 [-:-] errno[-] logId[-] uri[-] user[-] refer[-] cookie[-] custom[-]  [yog-ral] [cluster main][RalModule] [/Users/apple/Desktop/workspace/ndesig/yog/node_modules/yog2-kernel/node_modules/node-ral/lib/ext] is skiped since not RalModule
NOTICE: 16-08-19 19:58:59 [-:-] errno[-] logId[-] uri[-] user[-] refer[-] cookie[-] custom[-]  [yog-ral] [cluster main][Config] config auto update wase disabled
NOTICE: 16-08-19 19:59:03 [-:-] errno[-] logId[-] uri[-] user[-] refer[-] cookie[-] custom[-]  [yog-ral] [cluster main][RalModule] [/Users/apple/Desktop/workspace/ndesig/yog/node_modules/yog2-kernel/node_modules/node-ral/lib/ext] is skiped since not RalModule
NOTICE: 16-08-19 19:59:03 [-:-] errno[-] logId[-] uri[-] user[-] refer[-] cookie[-] custom[-]  [yog-ral] [cluster main][Config] config auto update wase disabled
NOTICE: 16-08-19 19:59:04 [-:-] errno[-] logId[-] uri[-] user[-] refer[-] cookie[-] custom[-]  [yog-ral] [cluster main][RalModule] [/Users/apple/Desktop/workspace/ndesig/yog/node_modules/yog2-kernel/node_modules/node-ral/lib/ext] is skiped since not RalModule
NOTICE: 16-08-19 19:59:04 [-:-] errno[-] logId[-] uri[-] user[-] refer[-] cookie[-] custom[-]  [yog-ral] [cluster main][Config] config auto update wase disabled
NOTICE: 16-08-19 19:59:05 [-:-] errno[-] logId[-] uri[-] user[-] refer[-] cookie[-] custom[-]  [yog-ral] [cluster main][RalModule] [/Users/apple/Desktop/workspace/ndesig/yog/node_modules/yog2-kernel/node_modules/node-ral/lib/ext] is skiped since not RalModule
NOTICE: 16-08-19 19:59:05 [-:-] errno[-] logId[-] uri[-] user[-] refer[-] cookie[-] custom[-]  [yog-ral] [cluster main][Config] config auto update wase disabled
